^F:\!DoctorChoi_GitLab\bsqli2\bsqli2\bsqli2.vcxproj
F:\!DoctorChoi_GitLab\bsqli2\build\Release\bsqli2.ipdb
F:\!DoctorChoi_GitLab\bsqli2\build\Release\bsqli2.iobj
^F:\!DoctorChoi_GitLab\bsqli2\bsqli2\bsqli2.vcxproj
F:\!DoctorChoi_GitLab\bsqli2\build\Release\bsqli2.ipdb
F:\!DoctorChoi_GitLab\bsqli2\build\Release\bsqli2.iobj
^F:\!DoctorChoi_GitLab\bsqli2\bsqli2\bsqli2.vcxproj
F:\!DoctorChoi_GitLab\bsqli2\build\Release\bsqli2.ipdb
F:\!DoctorChoi_GitLab\bsqli2\build\Release\bsqli2.iobj
^F:\!DoctorChoi_GitLab\bsqli2\bsqli2\bsqli2.vcxproj
F:\!DoctorChoi_GitLab\bsqli2\build\Release\bsqli2.ipdb
F:\!DoctorChoi_GitLab\bsqli2\build\Release\bsqli2.iobj
^F:\!DoctorChoi_GitLab\bsqli2\bsqli2\bsqli2.vcxproj
F:\!DoctorChoi_GitLab\bsqli2\build\Release\bsqli2.ipdb
F:\!DoctorChoi_GitLab\bsqli2\build\Release\bsqli2.iobj
^F:\!DoctorChoi_GitLab\bsqli2\bsqli2\bsqli2.vcxproj
F:\!DoctorChoi_GitLab\bsqli2\build\Release\bsqli2.ipdb
F:\!DoctorChoi_GitLab\bsqli2\build\Release\bsqli2.iobj
^F:\!DoctorChoi_GitLab\bsqli2\bsqli2\bsqli2.vcxproj
F:\!DoctorChoi_GitLab\bsqli2\build\Release\bsqli2.ipdb
F:\!DoctorChoi_GitLab\bsqli2\build\Release\bsqli2.iobj
^F:\!DoctorChoi_GitLab\bsqli2\bsqli2\bsqli2.vcxproj
F:\!DoctorChoi_GitLab\bsqli2\build\Release\bsqli2.ipdb
F:\!DoctorChoi_GitLab\bsqli2\build\Release\bsqli2.iobj
^F:\!DoctorChoi_GitLab\bsqli2\bsqli2\bsqli2.vcxproj
F:\!DoctorChoi_GitLab\bsqli2\build\Release\bsqli2.ipdb
F:\!DoctorChoi_GitLab\bsqli2\build\Release\bsqli2.iobj
^F:\!DoctorChoi_GitLab\bsqli2\bsqli2\bsqli2.vcxproj
F:\!DoctorChoi_GitLab\bsqli2\build\Release\bsqli2.ipdb
F:\!DoctorChoi_GitLab\bsqli2\build\Release\bsqli2.iobj
^F:\!DoctorChoi_GitLab\bsqli2\bsqli2\bsqli2.vcxproj
F:\!DoctorChoi_GitLab\bsqli2\build\Release\bsqli2.ipdb
F:\!DoctorChoi_GitLab\bsqli2\build\Release\bsqli2.iobj
^F:\!DoctorChoi_GitLab\bsqli2\bsqli2\bsqli2.vcxproj
F:\!DoctorChoi_GitLab\bsqli2\build\Release\bsqli2.ipdb
F:\!DoctorChoi_GitLab\bsqli2\build\Release\bsqli2.iobj
^F:\!DoctorChoi_GitLab\bsqli2\bsqli2\bsqli2.vcxproj
F:\!DoctorChoi_GitLab\bsqli2\build\Release\bsqli2.ipdb
F:\!DoctorChoi_GitLab\bsqli2\build\Release\bsqli2.iobj
^F:\!DoctorChoi_GitLab\bsqli2\bsqli2\bsqli2.vcxproj
F:\!DoctorChoi_GitLab\bsqli2\build\Release\bsqli2.ipdb
F:\!DoctorChoi_GitLab\bsqli2\build\Release\bsqli2.iobj
